{
 "actions": [],
 "allow_rename": 1,
 "autoname": "field:muni",
 "creation": "2022-04-27 17:20:08.762954",
 "doctype": "DocType",
 "editable_grid": 1,
 "engine": "InnoDB",
 "field_order": [
  "muni"
 ],
 "fields": [
  {
   "fieldname": "muni",
   "fieldtype": "Data",
   "in_list_view": 1,
   "label": "Municipio",
   "reqd": 1,
   "unique": 1
  }
 ],
 "index_web_pages_for_search": 1,
 "links": [],
 "modified": "2022-04-27 17:20:08.762954",
 "modified_by": "Administrator",
 "module": "Drones de campo",
 "name": "Municipio",
 "owner": "Administrator",
 "permissions": [
  {
   "create": 1,
   "delete": 1,
   "email": 1,
   "export": 1,
   "print": 1,
   "read": 1,
   "report": 1,
   "role": "System Manager",
   "share": 1,
   "write": 1
  }
 ],
 "sort_field": "modified",
 "sort_order": "DESC"
}