{
 "actions": [],
 "allow_rename": 1,
 "autoname": "naming_series:",
 "creation": "2022-04-08 11:28:05.582408",
 "doctype": "DocType",
 "editable_grid": 1,
 "engine": "InnoDB",
 "field_order": [
  "naming_series",
  "marca",
  "modelo",
  "serie",
  "fechaco",
  "suplidor",
  "cb1",
  "transfrido",
  "fechaac",
  "estatus",
  "fechaman",
  "condicion",
  "gestor",
  "sb1",
  "datos_adicionales"
 ],
 "fields": [
  {
   "fieldname": "marca",
   "fieldtype": "Data",
   "in_global_search": 1,
   "in_list_view": 1,
   "in_standard_filter": 1,
   "label": "Marca",
   "reqd": 1
  },
  {
   "fieldname": "modelo",
   "fieldtype": "Data",
   "in_list_view": 1,
   "label": "Modelo",
   "reqd": 1
  },
  {
   "fieldname": "serie",
   "fieldtype": "Data",
   "in_list_view": 1,
   "label": "N\u00famero de serie",
   "reqd": 1
  },
  {
   "fieldname": "estatus",
   "fieldtype": "Select",
   "label": "Estatus",
   "options": "Activo\nFuera de servicio\nTaller\nTransferido"
  },
  {
   "fieldname": "cb1",
   "fieldtype": "Column Break"
  },
  {
   "fieldname": "suplidor",
   "fieldtype": "Data",
   "label": "Suplidor",
   "reqd": 1
  },
  {
   "fieldname": "condicion",
   "fieldtype": "Select",
   "label": "Condici\u00f3n",
   "options": "\nNuevo\nUsado"
  },
  {
   "fieldname": "gestor",
   "fieldtype": "Link",
   "hidden": 1,
   "label": "Consultor",
   "options": "User"
  },
  {
   "fieldname": "datos_adicionales",
   "fieldtype": "Text"
  },
  {
   "fieldname": "sb1",
   "fieldtype": "Section Break",
   "label": "Datos adicionales"
  },
  {
   "fieldname": "fechaco",
   "fieldtype": "Date",
   "in_list_view": 1,
   "label": "Fecha de compra",
   "reqd": 1
  },
  {
   "default": "Today",
   "fieldname": "fechaac",
   "fieldtype": "Date",
   "label": "Fecha de activaci\u00f3n",
   "reqd": 1
  },
  {
   "fieldname": "fechaman",
   "fieldtype": "Date",
   "label": "Fecha del \u00faltimo mantenimiento",
   "reqd": 1
  },
  {
   "fieldname": "naming_series",
   "fieldtype": "Select",
   "hidden": 1,
   "label": "Serie",
   "options": "DRON-.YYYY.-"
  },
  {
   "default": "0",
   "fieldname": "transfrido",
   "fieldtype": "Check",
   "label": "Transferido"
  }
 ],
 "index_web_pages_for_search": 1,
 "links": [],
 "modified": "2022-05-26 11:59:23.167534",
 "modified_by": "Administrator",
 "module": "Drones de campo",
 "name": "Dron",
 "name_case": "Title Case",
 "owner": "Administrator",
 "permissions": [
  {
   "create": 1,
   "delete": 1,
   "email": 1,
   "export": 1,
   "print": 1,
   "read": 1,
   "report": 1,
   "role": "System Manager",
   "share": 1,
   "write": 1
  }
 ],
 "search_fields": "marca,modelo,serie",
 "sort_field": "modified",
 "sort_order": "DESC",
 "title_field": "marca",
 "track_changes": 1
}