{
 "category": "Modules",
 "charts": [],
 "creation": "2022-06-10 09:28:07.045940",
 "developer_mode_only": 0,
 "disable_user_customization": 0,
 "docstatus": 0,
 "doctype": "Workspace",
 "extends_another_page": 0,
 "hide_custom": 0,
 "idx": 0,
 "is_default": 0,
 "is_standard": 1,
 "label": "Reportes",
 "links": [],
 "modified": "2022-06-15 12:33:24.574467",
 "modified_by": "Administrator",
 "module": "Drones de campo",
 "name": "Reportes",
 "owner": "Administrator",
 "pin_to_bottom": 0,
 "pin_to_top": 1,
 "shortcuts": [
  {
   "doc_view": "New",
   "label": "Reporte de aspersi\u00f3n",
   "link_to": "Aspersion",
   "type": "Report"
  },
  {
   "doc_view": "New",
   "label": "Reporte de mantenimiento",
   "link_to": "Mantenimiento",
   "type": "Report"
  }
 ]
}