{
 "actions": [],
 "allow_rename": 1,
 "autoname": "naming_series",
 "creation": "2022-05-02 18:29:30.190161",
 "doctype": "DocType",
 "editable_grid": 1,
 "engine": "InnoDB",
 "field_order": [
  "naming_series",
  "piezas",
  "nombre",
  "cantidad"
 ],
 "fields": [
  {
   "fieldname": "piezas",
   "fieldtype": "Link",
   "in_list_view": 1,
   "label": "Piezas",
   "options": "Pieza",
   "reqd": 1
  },
  {
   "fieldname": "naming_series",
   "fieldtype": "Select",
   "label": "Serie",
   "options": "PIEZA-.YYYY.-"
  },
  {
   "fieldname": "cantidad",
   "fieldtype": "Int",
   "label": "Cantidad",
   "reqd": 1
  },
  {
   "fetch_from": "piezas.pieza",
   "fieldname": "nombre",
   "fieldtype": "Data",
   "hidden": 1,
   "label": "Nombre",
   "read_only": 1
  }
 ],
 "index_web_pages_for_search": 1,
 "istable": 1,
 "links": [],
 "modified": "2022-05-26 16:08:28.324826",
 "modified_by": "Administrator",
 "module": "Drones de campo",
 "name": "Piezas",
 "name_case": "Title Case",
 "owner": "Administrator",
 "permissions": [],
 "sort_field": "modified",
 "sort_order": "DESC",
 "track_changes": 1
}