{
 "category": "Modules",
 "charts": [],
 "creation": "2022-05-16 15:49:32.363768",
 "developer_mode_only": 0,
 "disable_user_customization": 0,
 "docstatus": 0,
 "doctype": "Workspace",
 "extends_another_page": 0,
 "hide_custom": 0,
 "idx": 0,
 "is_default": 0,
 "is_standard": 1,
 "label": "Sistema",
 "links": [],
 "modified": "2022-05-16 15:59:42.210915",
 "modified_by": "Administrator",
 "module": "Drones de campo",
 "name": "Sistema",
 "owner": "Administrator",
 "pin_to_bottom": 0,
 "pin_to_top": 1,
 "shortcuts": [
  {
   "doc_view": "List",
   "label": "Usuario",
   "link_to": "User",
   "type": "DocType"
  },
  {
   "doc_view": "List",
   "label": "Restricci\u00f3n de datos",
   "link_to": "User Permission",
   "type": "DocType"
  }
 ]
}