{
 "category": "Modules",
 "charts": [],
 "creation": "2022-06-20 11:26:58.335284",
 "developer_mode_only": 0,
 "disable_user_customization": 0,
 "docstatus": 0,
 "doctype": "Workspace",
 "extends_another_page": 0,
 "hide_custom": 0,
 "idx": 0,
 "is_default": 0,
 "is_standard": 1,
 "label": "Aspersi\u00f3n",
 "links": [
  {
   "hidden": 0,
   "is_query_report": 0,
   "label": "Activos",
   "link_type": "DocType",
   "onboard": 0,
   "type": "Card Break"
  },
  {
   "hidden": 0,
   "is_query_report": 0,
   "label": "Listado de drones",
   "link_to": "Dron",
   "link_type": "DocType",
   "onboard": 0,
   "type": "Link"
  },
  {
   "hidden": 0,
   "is_query_report": 0,
   "label": "Listado de piezas",
   "link_to": "Pieza",
   "link_type": "DocType",
   "onboard": 0,
   "type": "Link"
  },
  {
   "hidden": 0,
   "is_query_report": 0,
   "label": "Listado de equipos",
   "link_to": "Equipo",
   "link_type": "DocType",
   "onboard": 0,
   "type": "Link"
  },
  {
   "hidden": 0,
   "is_query_report": 0,
   "label": "Clientes",
   "link_to": "",
   "link_type": "DocType",
   "onboard": 0,
   "type": "Card Break"
  },
  {
   "hidden": 0,
   "is_query_report": 0,
   "label": "Clientes",
   "link_to": "Cliente",
   "link_type": "DocType",
   "onboard": 0,
   "type": "Link"
  },
  {
   "hidden": 0,
   "is_query_report": 0,
   "label": "Fincas",
   "link_to": "Finca",
   "link_type": "DocType",
   "onboard": 0,
   "type": "Link"
  },
  {
   "hidden": 0,
   "is_query_report": 0,
   "label": "Colonias",
   "link_to": "Colonias",
   "link_type": "DocType",
   "onboard": 0,
   "type": "Link"
  },
  {
   "hidden": 0,
   "is_query_report": 0,
   "label": "Trabajos",
   "link_to": "",
   "link_type": "DocType",
   "onboard": 0,
   "type": "Card Break"
  },
  {
   "hidden": 0,
   "is_query_report": 0,
   "label": "Mantenimiento",
   "link_to": "Mantenimiento",
   "link_type": "DocType",
   "onboard": 0,
   "type": "Link"
  },
  {
   "hidden": 0,
   "is_query_report": 0,
   "label": "Aspersi\u00f3n",
   "link_to": "Aspersion",
   "link_type": "DocType",
   "onboard": 0,
   "type": "Link"
  },
  {
   "hidden": 0,
   "is_query_report": 0,
   "label": "Asignaciones ",
   "link_to": "Asignacion",
   "link_type": "DocType",
   "onboard": 0,
   "type": "Link"
  }
 ],
 "modified": "2022-06-20 14:00:57.726647",
 "modified_by": "Administrator",
 "module": "Drones de campo",
 "name": "Aspersi\u00f3n",
 "owner": "Administrator",
 "pin_to_bottom": 0,
 "pin_to_top": 1,
 "shortcuts": [
  {
   "doc_view": "New",
   "label": "Reporte de aspersi\u00f3n",
   "link_to": "Aspersion",
   "type": "Report"
  }
 ]
}