{
 "actions": [],
 "allow_rename": 1,
 "autoname": "field:tipo",
 "creation": "2022-05-30 10:07:17.673649",
 "doctype": "DocType",
 "editable_grid": 1,
 "engine": "InnoDB",
 "field_order": [
  "tipo"
 ],
 "fields": [
  {
   "fieldname": "tipo",
   "fieldtype": "Data",
   "in_list_view": 1,
   "label": "Tipo",
   "reqd": 1,
   "unique": 1
  }
 ],
 "index_web_pages_for_search": 1,
 "links": [],
 "modified": "2022-05-30 10:10:28.032446",
 "modified_by": "Administrator",
 "module": "Drones de campo",
 "name": "Tipo de activo",
 "name_case": "Title Case",
 "owner": "Administrator",
 "permissions": [
  {
   "create": 1,
   "delete": 1,
   "email": 1,
   "export": 1,
   "print": 1,
   "read": 1,
   "report": 1,
   "role": "System Manager",
   "share": 1,
   "write": 1
  }
 ],
 "quick_entry": 1,
 "search_fields": "tipo",
 "sort_field": "modified",
 "sort_order": "DESC",
 "title_field": "tipo",
 "track_changes": 1
}