{
 "actions": [],
 "allow_rename": 1,
 "autoname": "naming_series:",
 "creation": "2022-05-30 14:08:06.737988",
 "doctype": "DocType",
 "editable_grid": 1,
 "engine": "InnoDB",
 "field_order": [
  "naming_series",
  "vehiculo",
  "kilometros_ini",
  "fecha",
  "kilometros_fin"
 ],
 "fields": [
  {
   "fieldname": "naming_series",
   "fieldtype": "Select",
   "label": "Serie",
   "options": "USOV-.YYYY.-"
  },
  {
   "fieldname": "vehiculo",
   "fieldtype": "Link",
   "in_list_view": 1,
   "label": "Veh\u00edculo",
   "options": "Equipo",
   "reqd": 1
  },
  {
   "fieldname": "kilometros_fin",
   "fieldtype": "Float",
   "label": "Fin de KMs",
   "precision": "1"
  },
  {
   "fieldname": "fecha",
   "fieldtype": "Date",
   "in_list_view": 1,
   "label": "Fecha de uso",
   "reqd": 1
  },
  {
   "fieldname": "kilometros_ini",
   "fieldtype": "Float",
   "label": "Inicio de KMs",
   "precision": "1",
   "reqd": 1
  }
 ],
 "index_web_pages_for_search": 1,
 "istable": 1,
 "links": [],
 "modified": "2022-05-30 14:53:46.156254",
 "modified_by": "Administrator",
 "module": "Drones de campo",
 "name": "Uso vehicular",
 "owner": "Administrator",
 "permissions": [],
 "sort_field": "modified",
 "sort_order": "DESC"
}